4089
2833
3204
1166
145
886
1962
3932
894
724
226
3984
1959
2456
634
629
1133
2508
2997
2170
1716
958
140
3643
3432
1567
3194
3168
4020
1190
2347
2334
144
2099
2811
3251
4061
2140
3509
1263
2526
3742
2247
1818
331
1470
1459
2843
1677
3004
496
1303
1526
4063
2143
3106
1821
3312
2142
4031
2682
3246
1182
809
2973
3944
836
4055
1679
186
2576
1232
1903
2685
1542
2489
956
1892
2518
280
2138
2053
1211
2415
3624
251
2531
2800
865
1317
3236
3683
2708
3513
4034
246
3
2352
1123
1509
1597
271
738
3267
3333
1401
1394
2880
3720
4021
1157
1775
3310
665
2258
3913
3732
3760
2526
2966
1277
2760
3766
1583
724
278
3385
145
1115
2318
2884
2447
4067
3510
3355
2931
19
3933
2572
3057
1539
2236
1328
956
3744
2571
3997
1907
510
801
2010
1651
898
1520
167
2079
2506
1175
822
947
2245
408
494
2365
94
2397
2666
2127
3302
2795
3813
550
612
2024
2210
2524
1701
4073
1850
2920
3973
2395
1298
3127
1069
596
1774
1681
2445
1085
3341
3035
760
1762
621
3505
703
1844
3753
2762
